<svg xmlns="http://www.w3.org/2000/svg" xmlns:xlink="http://www.w3.org/1999/xlink" viewBox="0 0 1160.53 1302.84">
  <defs>
    <linearGradient id="linear-gradient" x1="564.15" y1="-9.31" x2="16.12" y2="939.91" gradientUnits="userSpaceOnUse">
      <stop offset="0" stop-color="#f0e9ce"/>
      <stop offset="0.01" stop-color="#efe7ca"/>
      <stop offset="0.04" stop-color="#eae0b9"/>
      <stop offset="0.08" stop-color="#e7dcae"/>
      <stop offset="0.14" stop-color="#e6d9a7"/>
      <stop offset="0.3" stop-color="#e5d8a5"/>
      <stop offset="1" stop-color="#d9c97f"/>
    </linearGradient>
    <linearGradient id="linear-gradient-2" x1="475.49" y1="209.38" x2="588.33" y2="404.81" gradientUnits="userSpaceOnUse">
      <stop offset="0" stop-color="#d1d3d4"/>
      <stop offset="1" stop-color="#bcbec0"/>
    </linearGradient>
    <linearGradient id="linear-gradient-3" x1="484.06" y1="211.96" x2="586.32" y2="389.08" gradientUnits="userSpaceOnUse">
      <stop offset="0" stop-color="#d4e4f5"/>
      <stop offset="1" stop-color="#fff"/>
    </linearGradient>
    <linearGradient id="linear-gradient-4" x1="742.32" y1="689.14" x2="998.48" y2="245.45" gradientUnits="userSpaceOnUse">
      <stop offset="0" stop-color="#d1be61"/>
      <stop offset="0.29" stop-color="#d5c472"/>
      <stop offset="0.61" stop-color="#d8c87c"/>
      <stop offset="1" stop-color="#d9c97f"/>
    </linearGradient>
    <linearGradient id="linear-gradient-5" x1="580.27" y1="649.05" x2="580.27" y2="1272.49" gradientUnits="userSpaceOnUse">
      <stop offset="0.5" stop-color="#e6e7e8"/>
      <stop offset="0.57" stop-color="#e8e9ea"/>
      <stop offset="1" stop-color="#f1f2f2"/>
    </linearGradient>
    <linearGradient id="linear-gradient-6" x1="1686.68" y1="265.22" x2="1799.51" y2="460.65" gradientTransform="matrix(-1, 0, 0, 1, 2468.43, 0)" xlink:href="#linear-gradient-2"/>
    <linearGradient id="linear-gradient-7" x1="773.18" y1="267.8" x2="670.92" y2="444.92" gradientUnits="userSpaceOnUse">
      <stop offset="0" stop-color="#d4e4f5"/>
      <stop offset="0.34" stop-color="#e9f1fa"/>
      <stop offset="0.71" stop-color="#f9fbfe"/>
      <stop offset="1" stop-color="#fff"/>
    </linearGradient>
    <linearGradient id="linear-gradient-8" x1="975.48" y1="704.95" x2="897.02" y2="840.85" gradientUnits="userSpaceOnUse">
      <stop offset="0" stop-color="#fff"/>
      <stop offset="0.17" stop-color="#fbfbfb"/>
      <stop offset="0.33" stop-color="#eff0f1"/>
      <stop offset="0.41" stop-color="#e6e7e8"/>
      <stop offset="0.49" stop-color="#eeeeef"/>
      <stop offset="0.66" stop-color="#fbfbfb"/>
      <stop offset="0.83" stop-color="#fff"/>
      <stop offset="0.93" stop-color="#f9fafa"/>
      <stop offset="1" stop-color="#f1f2f2"/>
    </linearGradient>
    <linearGradient id="linear-gradient-9" x1="689.52" y1="826.04" x2="950.97" y2="826.04" gradientUnits="userSpaceOnUse">
      <stop offset="0" stop-color="#95d6d8"/>
      <stop offset="0.1" stop-color="#80cacd"/>
      <stop offset="0.29" stop-color="#58b4b8"/>
      <stop offset="0.45" stop-color="#40a7ab"/>
      <stop offset="0.55" stop-color="#37a2a6"/>
      <stop offset="0.75" stop-color="#39a3a7"/>
      <stop offset="0.83" stop-color="#40a7ab"/>
      <stop offset="0.88" stop-color="#4badb1"/>
      <stop offset="0.92" stop-color="#5cb7ba"/>
      <stop offset="0.96" stop-color="#72c3c6"/>
      <stop offset="0.99" stop-color="#8dd2d4"/>
      <stop offset="1" stop-color="#95d6d8"/>
    </linearGradient>
    <linearGradient id="linear-gradient-10" x1="820.24" y1="887.25" x2="820.24" y2="740.35" gradientUnits="userSpaceOnUse">
      <stop offset="0" stop-color="#6ebbbf"/>
      <stop offset="0.2" stop-color="#73c4c8"/>
      <stop offset="0.5" stop-color="#78cdd1"/>
      <stop offset="0.71" stop-color="#81d0d3"/>
      <stop offset="1" stop-color="#95d6d8"/>
    </linearGradient>
    <linearGradient id="linear-gradient-11" x1="429.11" y1="506.14" x2="344.54" y2="359.66" xlink:href="#linear-gradient"/>
    <linearGradient id="linear-gradient-12" x1="473.09" y1="317.27" x2="497.24" y2="359.09" gradientUnits="userSpaceOnUse">
      <stop offset="0" stop-color="#e6e7e8"/>
      <stop offset="0.4" stop-color="#eeefef"/>
      <stop offset="1" stop-color="#f1f2f2"/>
    </linearGradient>
    <linearGradient id="linear-gradient-13" x1="241.78" y1="623.5" x2="265.96" y2="665.38" gradientUnits="userSpaceOnUse">
      <stop offset="0" stop-color="#ad9e50"/>
      <stop offset="0.01" stop-color="#ae9f50"/>
      <stop offset="0.3" stop-color="#bfac4e"/>
      <stop offset="0.61" stop-color="#c9b44c"/>
      <stop offset="1" stop-color="#ccb74c"/>
    </linearGradient>
    <linearGradient id="linear-gradient-14" x1="209.54" y1="791.01" x2="233.72" y2="832.89" gradientUnits="userSpaceOnUse">
      <stop offset="0" stop-color="#ad9e50"/>
      <stop offset="0.07" stop-color="#b3a353"/>
      <stop offset="0.34" stop-color="#c4b25b"/>
      <stop offset="0.63" stop-color="#cebb5f"/>
      <stop offset="1" stop-color="#d1be61"/>
    </linearGradient>
    <linearGradient id="linear-gradient-15" x1="459.33" y1="749.01" x2="467.41" y2="763.02" gradientUnits="userSpaceOnUse">
      <stop offset="0" stop-color="#636466"/>
      <stop offset="0.2" stop-color="#77797b"/>
      <stop offset="0.51" stop-color="#919396"/>
      <stop offset="0.79" stop-color="#a1a3a6"/>
      <stop offset="1" stop-color="#a7a9ac"/>
    </linearGradient>
    <linearGradient id="linear-gradient-16" x1="217.64" y1="842.07" x2="209.51" y2="856.16" gradientUnits="userSpaceOnUse">
      <stop offset="0" stop-color="#939598"/>
      <stop offset="0.06" stop-color="#9b9da0"/>
      <stop offset="0.26" stop-color="#b3b5b7"/>
      <stop offset="0.47" stop-color="#c4c6c7"/>
      <stop offset="0.71" stop-color="#ced0d1"/>
      <stop offset="1" stop-color="#d1d3d4"/>
    </linearGradient>
    <linearGradient id="linear-gradient-17" x1="2004.02" y1="606.64" x2="1997.96" y2="617.14" gradientTransform="matrix(-1, 0, 0, 1, 2468.43, 0)" xlink:href="#linear-gradient-16"/>
    <linearGradient id="linear-gradient-18" x1="322.37" y1="558.36" x2="370.73" y2="642.11" gradientUnits="userSpaceOnUse">
      <stop offset="0" stop-color="#dcddde"/>
      <stop offset="0.01" stop-color="#dddedf"/>
      <stop offset="0.16" stop-color="#e8e9ea"/>
      <stop offset="0.38" stop-color="#eff0f0"/>
      <stop offset="1" stop-color="#f1f2f2"/>
    </linearGradient>
    <linearGradient id="linear-gradient-19" x1="257.9" y1="521.14" x2="290.13" y2="576.97" gradientUnits="userSpaceOnUse">
      <stop offset="0" stop-color="#d1d3d4"/>
      <stop offset="0.04" stop-color="#dadbdc"/>
      <stop offset="0.15" stop-color="#ebebec"/>
      <stop offset="0.29" stop-color="#f6f7f7"/>
      <stop offset="0.47" stop-color="#fdfdfd"/>
      <stop offset="1" stop-color="#fff"/>
    </linearGradient>
    <linearGradient id="linear-gradient-20" x1="257.9" y1="446.69" x2="290.13" y2="502.53" xlink:href="#linear-gradient-19"/>
    <linearGradient id="linear-gradient-21" x1="215.77" y1="467.38" x2="-35.43" y2="902.47" gradientUnits="userSpaceOnUse">
      <stop offset="0" stop-color="#bce4e5"/>
      <stop offset="0.03" stop-color="#95d6d8"/>
      <stop offset="0.27" stop-color="#95d6d8"/>
      <stop offset="0.34" stop-color="#37a2a6"/>
    </linearGradient>
    <linearGradient id="linear-gradient-22" x1="96.71" y1="735.23" x2="257.89" y2="735.23" gradientUnits="userSpaceOnUse">
      <stop offset="0" stop-color="#37a2a6"/>
      <stop offset="0.02" stop-color="#42a9ad"/>
      <stop offset="0.05" stop-color="#5ab9bd"/>
      <stop offset="0.1" stop-color="#6bc4c8"/>
      <stop offset="0.14" stop-color="#75cbcf"/>
      <stop offset="0.2" stop-color="#78cdd1"/>
      <stop offset="0.8" stop-color="#78cdd1"/>
      <stop offset="0.86" stop-color="#7bced2"/>
      <stop offset="0.9" stop-color="#85d1d5"/>
      <stop offset="0.94" stop-color="#96d7da"/>
      <stop offset="0.98" stop-color="#aedfe1"/>
      <stop offset="1" stop-color="#bce4e5"/>
    </linearGradient>
    <linearGradient id="linear-gradient-23" x1="96.71" y1="674.51" x2="257.89" y2="674.51" gradientUnits="userSpaceOnUse">
      <stop offset="0" stop-color="#009598"/>
      <stop offset="0.01" stop-color="#109c9f"/>
      <stop offset="0.05" stop-color="#2ea8ac"/>
      <stop offset="0.08" stop-color="#46b2b6"/>
      <stop offset="0.11" stop-color="#57b9bd"/>
      <stop offset="0.15" stop-color="#61bec2"/>
      <stop offset="0.2" stop-color="#64bfc3"/>
      <stop offset="0.8" stop-color="#64bfc3"/>
      <stop offset="0.89" stop-color="#67c1c5"/>
      <stop offset="0.97" stop-color="#71c8cc"/>
      <stop offset="1" stop-color="#78cdd1"/>
    </linearGradient>
    <linearGradient id="linear-gradient-24" x1="221.38" y1="767.41" x2="236.7" y2="793.94" gradientUnits="userSpaceOnUse">
      <stop offset="0" stop-color="#37a2a6"/>
      <stop offset="0.08" stop-color="#42a9ad"/>
      <stop offset="0.27" stop-color="#5ab9bd"/>
      <stop offset="0.48" stop-color="#6bc4c8"/>
      <stop offset="0.71" stop-color="#75cbcf"/>
      <stop offset="1" stop-color="#78cdd1"/>
    </linearGradient>
    <linearGradient id="linear-gradient-25" x1="232.3" y1="761.1" x2="234.3" y2="764.56" gradientUnits="userSpaceOnUse">
      <stop offset="0" stop-color="#d9d9d9"/>
      <stop offset="0.25" stop-color="#fff"/>
      <stop offset="0.39" stop-color="#fcfcfc"/>
      <stop offset="0.5" stop-color="#f1f1f1"/>
      <stop offset="0.61" stop-color="#e0e0e0"/>
      <stop offset="0.71" stop-color="#c8c8c8"/>
      <stop offset="0.81" stop-color="#a9a9a9"/>
      <stop offset="0.85" stop-color="#999"/>
      <stop offset="0.89" stop-color="#9c9c9c"/>
      <stop offset="0.92" stop-color="#a6a6a6"/>
      <stop offset="0.95" stop-color="#b7b7b7"/>
      <stop offset="0.98" stop-color="#cfcfcf"/>
      <stop offset="1" stop-color="#e6e6e6"/>
    </linearGradient>
    <linearGradient id="linear-gradient-26" x1="209.37" y1="665.13" x2="248.71" y2="733.27" xlink:href="#linear-gradient-24"/>
    <linearGradient id="linear-gradient-27" x1="202.94" y1="668.84" x2="257.59" y2="763.5" xlink:href="#linear-gradient-25"/>
    <linearGradient id="linear-gradient-28" x1="232.3" y1="631.98" x2="234.3" y2="635.44" xlink:href="#linear-gradient-25"/>
    <linearGradient id="linear-gradient-29" x1="209.37" y1="536.01" x2="248.71" y2="604.15" xlink:href="#linear-gradient-24"/>
    <linearGradient id="linear-gradient-30" x1="202.94" y1="539.72" x2="257.59" y2="634.38" xlink:href="#linear-gradient-25"/>
    <linearGradient id="linear-gradient-31" x1="605.05" y1="546.14" x2="645.23" y2="615.74" gradientTransform="matrix(-1, 0.24, 0, 1, 1351.07, 195.81)" gradientUnits="userSpaceOnUse">
      <stop offset="0.25" stop-color="#fff"/>
      <stop offset="0.49" stop-color="#f9f9fa"/>
      <stop offset="0.81" stop-color="#e9e9ea"/>
      <stop offset="1" stop-color="#dcddde"/>
    </linearGradient>
    <linearGradient id="linear-gradient-34" x1="562.59" y1="590.84" x2="567.44" y2="599.25" gradientTransform="matrix(-1, 0.24, 0, 1, 1351.07, 195.81)" gradientUnits="userSpaceOnUse">
      <stop offset="0" stop-color="#dcddde"/>
      <stop offset="0" stop-color="#dbdcdd"/>
      <stop offset="0.09" stop-color="#d0d1d2"/>
      <stop offset="0.21" stop-color="#c9cacc"/>
      <stop offset="0.55" stop-color="#c7c8ca"/>
      <stop offset="0.75" stop-color="#cdcecf"/>
      <stop offset="1" stop-color="#dcddde"/>
    </linearGradient>
    <linearGradient id="linear-gradient-35" x1="741.67" y1="887.54" x2="700.55" y2="958.77" gradientUnits="userSpaceOnUse">
      <stop offset="0" stop-color="#fff"/>
      <stop offset="0.05" stop-color="#fafafa"/>
      <stop offset="0.18" stop-color="#f3f4f4"/>
      <stop offset="0.55" stop-color="#f1f2f2"/>
      <stop offset="0.75" stop-color="#f7f7f7"/>
      <stop offset="0.89" stop-color="#fff"/>
      <stop offset="0.92" stop-color="#f9f9fa"/>
      <stop offset="0.97" stop-color="#e9e9ea"/>
      <stop offset="1" stop-color="#dcddde"/>
    </linearGradient>
    <linearGradient id="linear-gradient-36" x1="645.31" y1="848.71" x2="717.06" y2="973" gradientUnits="userSpaceOnUse">
      <stop offset="0" stop-color="#c7c8ca"/>
      <stop offset="0" stop-color="#c8c9cb"/>
      <stop offset="0.09" stop-color="#d3d4d6"/>
      <stop offset="0.21" stop-color="#dadbdc"/>
      <stop offset="0.55" stop-color="#dcddde"/>
      <stop offset="0.7" stop-color="#d6d7d9"/>
      <stop offset="0.89" stop-color="#c7c8ca"/>
      <stop offset="0.94" stop-color="#cdcecf"/>
      <stop offset="1" stop-color="#dcddde"/>
    </linearGradient>
    <radialGradient id="radial-gradient" cx="1867.49" cy="-52.28" r="348.43" gradientTransform="translate(16.05 558.46) scale(0.43 0.43)" gradientUnits="userSpaceOnUse">
      <stop offset="0" stop-color="#fff"/>
      <stop offset="0.21" stop-color="#eff0f0"/>
      <stop offset="0.4" stop-color="#e6e7e8"/>
      <stop offset="0.8" stop-color="#c7c8ca"/>
      <stop offset="0.88" stop-color="#cacbcd"/>
      <stop offset="0.94" stop-color="#d4d5d7"/>
      <stop offset="1" stop-color="#e5e6e7"/>
      <stop offset="1" stop-color="#e6e7e8"/>
    </radialGradient>
  </defs>
  <title>kueche</title>
  <g id="Livello_2" data-name="Livello 2">
    <g id="Layer_7" data-name="Layer 7">
      <g>
        <g id="Raum">
          <polygon points="580.27 595.58 0 930.6 0 335.02 580.27 0 580.27 595.58" fill="#f1f2f2"/>
          <polygon points="580.27 595.58 0 930.6 0 335.02 580.27 0 580.27 595.58" fill="url(#linear-gradient)"/>
          <g>
            <polygon points="580.27 148.9 483.56 204.73 483.56 465.3 580.27 409.46 580.27 148.9" fill="url(#linear-gradient-2)"/>
            <polygon points="490.12 208.52 580.27 156.42 580.27 392.52 490.12 444.63 490.12 208.52" fill="url(#linear-gradient-3)"/>
            <polygon points="490.12 444.63 580.27 392.52 580.27 402.02 490.12 453.93 490.12 444.63" fill="#fff"/>
            <polygon points="490.12 435.32 580.27 383.16 580.27 392.52 490.12 444.63 490.12 435.32" fill="#f4fbfe"/>
          </g>
          <polygon points="580.27 595.58 1160.53 930.6 1160.53 335.02 580.27 0 580.27 595.58" fill="#f1f2f2"/>
          <polygon points="580.27 595.58 1160.53 930.6 1160.53 339.01 580.27 4 580.27 595.58" fill="url(#linear-gradient-4)"/>
          <polygon points="580.27 1265.62 0 930.6 580.27 595.58 1160.53 930.6 580.27 1265.62" fill="#f1f2f2"/>
          <polygon points="1160.53 930.6 668.84 646.73 6.6 926.79 0 930.6 483.56 1209.78 483.56 949.21 676.98 837.54 799.32 908.18 799.28 1139.17 1160.53 930.6" fill="url(#linear-gradient-5)"/>
          <polygon points="1160.53 967.82 580.27 1302.84 580.27 1265.62 1160.53 930.6 1160.53 967.82" fill="#d1d3d4"/>
          <polygon points="0 967.82 580.27 1302.84 580.27 1265.62 0 930.6 0 967.82" fill="#bcbec0"/>
          <g>
            <polygon points="580.27 148.9 870.4 316.4 870.4 576.97 580.27 409.46 580.27 148.9" fill="url(#linear-gradient-6)"/>
            <polygon points="863.84 320.19 580.27 156.42 580.27 392.52 863.84 556.3 863.84 320.19" fill="url(#linear-gradient-7)"/>
            <polygon points="863.84 556.3 580.27 392.52 580.27 402.02 863.84 565.6 863.84 556.3" fill="#fff"/>
            <polygon points="863.84 546.99 580.27 383.16 580.27 392.52 863.84 556.3 863.84 546.99" fill="#f4fbfe"/>
          </g>
        </g>
        <g id="Stuhl_rechts" data-name="Stuhl rechts">
          <g>
            <path d="M921.26,857.52c0,48.67.93,88.12,5.43,88.12s5.42-39.45,5.42-88.12C932.11,836.89,921.26,836.89,921.26,857.52Z" fill="#c26950"/>
            <path d="M973.06,815.86c11.48,47.21,21.7,85.26,26.06,84.14s-4-39.63-15.53-86.84C978.72,793.14,968.19,795.85,973.06,815.86Z" fill="#c26950"/>
            <path d="M880.31,815.86c-11.48,47.21-21.7,85.26-26.06,84.14s4-39.63,15.53-86.84C874.65,793.14,885.18,795.85,880.31,815.86Z" fill="#c26950"/>
          </g>
          <g>
            <path d="M1000.57,719.44l-71.21-40.81A47.59,47.59,0,0,0,924.12,689a30.12,30.12,0,0,0-1.91,10v47a25.48,25.48,0,0,1-4.6,13.56c-2.92,4.37-6.71,7.6-10.38,8.85L864.15,783c-4,1.36-8.29,5.18-11.79,10.49A37.48,37.48,0,0,0,847,811.94l71.21,40.81c0-4,3.83-11.74,6.73-16.15s6.74-7.79,10.35-9l44-14.94a18.26,18.26,0,0,0,6.24-3.94,71.26,71.26,0,0,0,7.21-8.69c.34-.51-.1-1.6-1.14-3.16,2.54-3,4.89-5.3,4.89-8.55l-1-47.23c0-2.22,1.85-7.44,2.72-9.91C998.88,729,999.21,721.48,1000.57,719.44Z" fill="url(#linear-gradient-8)"/>
            <path d="M998.51,789.41c0,4.4-1.88,9.74-5.16,14.64a32.24,32.24,0,0,1-4.91,5.81,18.21,18.21,0,0,1-6.24,3.94l-44,14.94c-3.61,1.23-7.37,4.51-10.35,9s-4.64,9.41-4.64,13.38l-5.1,1.61a37.48,37.48,0,0,1,5.41-18.45c3.5-5.31,7.8-9.13,11.79-10.49l43.07-14.64c3.67-1.25,7.46-4.47,10.38-8.85a25.49,25.49,0,0,0,4.6-13.56Z" fill="#d1d3d4"/>
            <path d="M988.81,800.32a25.49,25.49,0,0,0,4.6-13.56v-47a30.19,30.19,0,0,1,1.91-10,47.57,47.57,0,0,1,5.25-10.33l2.55,5.63a30,30,0,0,0-3.28,6.49,21.19,21.19,0,0,0-1.32,7.07v50.78c0,4.4-1.88,9.74-5.16,14.64Z" fill="#d1d3d4"/>
          </g>
        </g>
        <g id="Tisch">
          <path d="M831.25,884c0,96-1.89,173.88-11,173.88s-11-77.85-11-173.88C809.25,843.29,831.25,843.29,831.25,884Z" fill="#c26950"/>
          <path d="M726.22,801.8c-23.29,93.16-44,168.23-52.83,166s8.21-78.19,31.49-171.36C714.74,757,736.09,762.31,726.22,801.8Z" fill="#c26950"/>
          <path d="M914.27,801.8c23.29,93.16,44,168.23,52.84,166s-8.21-78.19-31.49-171.36C925.75,757,904.4,762.31,914.27,801.8Z" fill="#c26950"/>
          <path d="M951,826c0,40.56-58.53,73.45-130.73,73.45S689.52,866.61,689.52,826V813.8l130.73-61.21L951,813.8Z" fill="url(#linear-gradient-9)"/>
          <ellipse cx="820.24" cy="813.8" rx="130.73" ry="73.45" fill="url(#linear-gradient-10)"/>
        </g>
        <g id="DUnstabzugshaube">
          <polygon points="256.81 521.74 384.78 447.89 480.42 281 352.25 355.14 256.81 521.74" fill="url(#linear-gradient-11)"/>
          <polygon points="480.44 104.17 440.14 80.91 399.85 104.17 440.14 127.44 480.44 104.17" fill="#fff"/>
          <polygon points="440.14 336.3 432.63 394.52 352.25 348.11 399.85 313.03 440.14 336.3" fill="#d1d3d4"/>
          <polygon points="480.44 313.03 561.03 322.26 480.64 275.85 440.14 289.77 480.44 313.03" fill="#e6e7e8"/>
          <polygon points="561.03 322.26 480.44 313.03 440.14 336.3 432.63 394.52 561.03 322.26" fill="url(#linear-gradient-12)"/>
          <polygon points="440.14 127.44 399.85 104.17 399.85 313.03 440.14 336.3 440.14 127.44" fill="#bcbec0"/>
          <polygon points="480.44 313.03 440.14 336.3 440.14 127.44 480.44 104.17 480.44 313.03" fill="#d1d3d4"/>
          <polygon points="352.25 355.14 432.63 401.55 432.63 394.52 352.25 348.11 352.25 355.14" fill="#bcbec0"/>
          <polygon points="561.03 329.3 432.63 401.55 432.63 394.52 561.03 322.26 561.03 329.3" fill="#d1d3d4"/>
        </g>
        <g id="Kuechenschrank">
          <polygon points="257.9 670.03 322.37 632.81 322.37 576.97 161.19 670.03 257.9 670.03" fill="url(#linear-gradient-13)"/>
          <polygon points="169.25 828.24 257.9 818.93 257.9 763.09 161.19 818.93 169.25 828.24" fill="url(#linear-gradient-14)"/>
          <polygon points="257.9 883.99 668.84 646.73 668.84 628.05 257.9 865.31 257.9 883.99" fill="url(#linear-gradient-15)"/>
          <polygon points="257.9 883.99 169.25 832.92 169.25 814.25 257.9 865.31 257.9 883.99" fill="url(#linear-gradient-16)"/>
          <polygon points="161.19 670.03 257.9 725.87 257.9 874.76 161.19 818.93 161.19 670.03" fill="#e87d60"/>
          <polygon points="257.9 725.87 161.19 670.03 161.19 651.42 257.9 707.26 257.9 725.87" fill="#e6e7e8"/>
          <polygon points="257.9 739.87 676.98 497.91 676.98 483.91 257.9 725.87 257.9 739.87" fill="url(#linear-gradient-17)"/>
          <polygon points="257.9 725.87 676.98 483.91 676.98 465.3 257.9 707.26 257.9 725.87" fill="#d1d3d4"/>
          <polygon points="676.98 486.42 580.27 542.26 580.27 688.65 676.98 632.81 676.98 486.42" fill="#c26950"/>
          <polygon points="580.27 542.26 451.32 617.09 451.32 763.48 580.27 688.65 580.27 542.26" fill="#c26950"/>
          <polygon points="451.32 617.09 354.61 672.44 354.61 818.83 451.32 763.48 451.32 617.09" fill="#c26950"/>
          <polygon points="676.98 465.3 580.27 409.46 161.19 651.42 257.9 707.26 676.98 465.3" fill="#fff"/>
          <polygon points="483.56 576.97 483.56 465.3 161.19 651.42 257.9 707.26 483.56 576.97" fill="url(#linear-gradient-18)"/>
          <polygon points="564.2 551.47 467.48 607.71 467.48 712.4 564.2 656.16 564.2 551.47" fill="#bcbec0"/>
          <polygon points="564.2 656.16 564.2 551.47 467.48 607.71 564.2 656.16" fill="#d1d3d4"/>
          <polygon points="531.96 570.16 499.72 588.88 499.72 599.01 531.96 580.27 531.96 570.16" fill="#404040"/>
          <polygon points="480.61 618.44 551.07 577.47 551.07 647.82 480.61 688.79 480.61 618.44" fill="#333132"/>
          <polygon points="484.45 616.21 551.07 577.47 551.07 647.82 549.44 648.77 484.45 616.21" fill="#414042"/>
          <g>
            <g>
              <polygon points="464.11 578.67 383.52 532.14 480.3 476.35 560.89 522.87 464.11 578.67" fill="#58595b"/>
              <polygon points="480.3 476.35 480.3 569.34 560.89 522.87 480.3 476.35" fill="#404040"/>
              <path d="M480.47,542.63c8,4.63,8,12.12,0,16.75s-21,4.62-29,0-8-12.12,0-16.75S472.46,538,480.47,542.63Z" fill="#77787b"/>
              <path d="M494.81,494.64c8,4.63,8,12.12,0,16.75s-21,4.63-29,0-8-12.12,0-16.75S486.8,490,494.81,494.64Z" fill="#77787b"/>
              <path d="M444.62,523.61c7.21,4.16,7.21,10.91,0,15.07s-18.9,4.16-26.11,0-7.21-10.91,0-15.07S437.42,519.45,444.62,523.61Z" fill="#77787b"/>
              <path d="M527.75,515.34c7.21,4.16,7.21,10.91,0,15.07s-18.9,4.16-26.1,0-7.21-10.91,0-15.07S520.54,511.17,527.75,515.34Z" fill="#77787b"/>
              <path d="M476.29,545c-5.7-3.29-14.94-3.29-20.64,0s-5.7,8.63,0,11.92,14.94,3.29,20.64,0S482,548.34,476.29,545Zm-35.43-19.26c-5.13-3-13.45-3-18.57,0s-5.13,7.76,0,10.72,13.45,3,18.57,0S446,528.75,440.86,525.78Zm49.76-28.73c-5.7-3.29-14.94-3.29-20.64,0s-5.7,8.63,0,11.91,14.94,3.29,20.64,0S496.32,500.35,490.62,497.06ZM524,517.51c-5.13-3-13.45-3-18.58,0s-5.13,7.76,0,10.72,13.45,3,18.58,0S529.11,520.47,524,517.51Z" fill="#58595b"/>
              <path d="M490.62,497.06a21.1,21.1,0,0,0-10.32-2.47v16.85A21.07,21.07,0,0,0,490.62,509C496.32,505.68,496.32,500.35,490.62,497.06ZM480.3,552.59a5,5,0,0,0,0-3.16ZM524,517.51c-5.13-3-13.45-3-18.58,0s-5.13,7.76,0,10.72,13.45,3,18.58,0S529.11,520.47,524,517.51Z" fill="#404040"/>
            </g>
            <path d="M554.4,521.59a1,1,0,0,1,0,1.93,3.68,3.68,0,0,1-3.34,0,1,1,0,0,1,0-1.93A3.68,3.68,0,0,1,554.4,521.59Z" fill="#dcddde"/>
            <path d="M548.67,525.13a1,1,0,0,1,0,1.93,3.69,3.69,0,0,1-3.34,0,1,1,0,0,1,0-1.93A3.69,3.69,0,0,1,548.67,525.13Z" fill="#dcddde"/>
            <path d="M542.93,528.67a1,1,0,0,1,0,1.93,3.69,3.69,0,0,1-3.34,0,1,1,0,0,1,0-1.93A3.69,3.69,0,0,1,542.93,528.67Z" fill="#dcddde"/>
            <path d="M537.2,532.21a1,1,0,0,1,0,1.93,3.69,3.69,0,0,1-3.34,0,1,1,0,0,1,0-1.93A3.69,3.69,0,0,1,537.2,532.21Z" fill="#dcddde"/>
          </g>
          <polygon points="354.61 672.44 257.9 728.38 257.9 874.76 354.61 818.83 354.61 672.44" fill="#c26950"/>
          <polygon points="580.27 688.65 580.27 542.26 582.2 541.15 582.2 687.54 580.27 688.65" fill="#b55a43"/>
          <polygon points="578.33 689.77 578.33 543.39 580.27 542.26 580.27 688.65 578.33 689.77" fill="#b55a43"/>
          <polygon points="451.32 763.48 451.32 617.09 453.25 615.97 453.25 762.36 451.32 763.48" fill="#b55a43"/>
          <polygon points="449.38 764.59 449.38 618.21 451.32 617.09 451.32 763.48 449.38 764.59" fill="#b55a43"/>
          <polygon points="354.61 818.83 354.61 672.44 356.54 671.32 356.54 817.71 354.61 818.83" fill="#b55a43"/>
          <polygon points="352.67 819.94 352.67 673.56 354.61 672.44 354.61 818.83 352.67 819.94" fill="#b55a43"/>
          <g>
            <polygon points="225.66 353.63 386.85 260.57 322.37 223.34 161.19 316.4 225.66 353.63" fill="#fff"/>
            <g>
              <polygon points="225.66 614.2 386.85 521.13 322.37 483.91 161.19 576.97 225.66 614.2" fill="url(#linear-gradient-19)"/>
              <polygon points="225.66 614.2 386.85 521.13 386.84 530.74 225.66 623.8 225.66 614.2" fill="#d1d3d4"/>
              <polygon points="225.66 539.75 386.85 446.69 322.37 409.47 161.19 502.53 225.66 539.75" fill="url(#linear-gradient-20)"/>
              <polygon points="225.66 539.75 386.85 446.69 386.84 456.29 225.66 549.35 225.66 539.75" fill="#d1d3d4"/>
              <polygon points="386.84 260.57 225.66 353.63 225.66 465.3 386.84 372.24 386.84 260.57" fill="#c26950"/>
              <polygon points="225.66 353.63 219 349.78 380.19 256.73 386.84 260.57 225.66 353.63" fill="#f69679"/>
              <polygon points="225.66 353.63 219 349.78 220.94 348.67 227.59 352.51 225.66 353.63" fill="#c26950"/>
              <polygon points="225.66 353.63 225.66 465.3 227.59 464.18 227.59 352.51 225.66 353.63" fill="#b55a43"/>
              <polygon points="386.84 370.13 227.59 461.95 225.66 465.3 386.84 372.24 386.84 370.13" fill="#b55a43"/>
            </g>
          </g>
        </g>
        <g id="Kuhlschrank">
          <path d="M0,918.3c0,3.11,1.14,5.29,3,6.38l96.71,55.84,49-135.8c6.86-4,12.42-12.73,12.42-19.59L254.86,490l-96.71-55.84c-2.28-1.31-5.64-1-9.39,1.13L12.42,514C5.56,517.93,0,526.7,0,533.56Z" fill="url(#linear-gradient-21)"/>
          <path d="M96.71,974.13c0,3.11,1.14,5.29,3,6.38,2.28,1.31,5.64,1,9.38-1.13l136.34-78.83c6.86-4,12.42-12.73,12.42-19.59V496.34c0-3.11-1.14-5.29-3-6.38-2.28-1.31-5.64-1-9.39,1.13L109.13,569.81c-6.86,4-12.42,12.73-12.42,19.59Z" fill="url(#linear-gradient-22)"/>
          <path d="M257.89,633c0,2.56-1.87,5.25-5.51,7.36L119.24,717.22c-6.66,3.85-16.75,4.28-22.52.95v-4.37c5.78,3.33,15.86,2.91,22.52-.95L252.38,636c3.64-2.11,5.51-4.8,5.51-7.36Z" fill="url(#linear-gradient-23)"/>
          <polygon points="96.71 713.79 0 657.96 0 662.33 96.71 718.17 96.71 713.79" fill="#009598"/>
          <g>
            <polygon points="225.66 800.32 232.42 796.41 232.42 761.03 225.66 764.94 225.66 800.32" fill="url(#linear-gradient-24)"/>
            <path d="M225.66,764.94l13.51-7.8C231.8,768.64,226.49,769.39,225.66,764.94Z" fill="url(#linear-gradient-25)"/>
            <polygon points="225.66 746.58 232.42 742.67 232.42 651.82 225.66 655.72 225.66 746.58" fill="url(#linear-gradient-26)"/>
            <path d="M225.66,655.72v15.6c3.74,3.23,6.77,26.81,6.77,52.66s-3,44.19-6.77,41v15.6a1.51,1.51,0,0,0,2.2,0c3.92-3.4,6.83-25.42,6.83-54.64C234.69,691.46,230.65,660,225.66,655.72Z" fill="#d1d3d4"/>
            <path d="M225.66,655.72c5,4.31,9,35.74,9,70.21,0,29.23-2.91,51.25-6.83,54.64,0,0,6.05-3.29,6.76-3.9,3.92-3.39,6.83-25.42,6.83-54.64,0-34.47-4-65.9-9-70.21Z" fill="url(#linear-gradient-27)"/>
          </g>
          <g>
            <path d="M225.66,635.82l13.51-7.8C231.8,639.52,226.49,640.27,225.66,635.82Z" fill="url(#linear-gradient-28)"/>
            <polygon points="225.66 617.46 232.42 613.56 232.42 522.71 225.66 526.61 225.66 617.46" fill="url(#linear-gradient-29)"/>
            <path d="M225.66,526.61v15.6c3.74,3.23,6.77,26.81,6.77,52.66s-3,44.19-6.77,41v15.6a1.51,1.51,0,0,0,2.2,0c3.92-3.4,6.83-25.42,6.83-54.64C234.69,562.35,230.65,530.91,225.66,526.61Z" fill="#d1d3d4"/>
            <path d="M225.66,526.61c5,4.31,9,35.74,9,70.21,0,29.23-2.91,51.25-6.83,54.64,0,0,6.05-3.29,6.76-3.9,3.93-3.39,6.83-25.42,6.83-54.64,0-34.47-4-65.9-9-70.21Z" fill="url(#linear-gradient-30)"/>
          </g>
        </g>
        <g id="Kuehkenschrank_oben" data-name="Kuehkenschrank oben">
          <g>
            <polygon points="225.66 353.63 64.47 446.69 64.47 558.36 225.66 465.3 225.66 353.63" fill="#c26950"/>
            <polygon points="64.47 446.69 225.66 353.63 161.19 316.4 0 409.46 64.47 446.69" fill="#fff"/>
            <polygon points="64.47 558.36 0 521.14 0 409.46 64.47 446.69 64.47 558.36" fill="#bcbec0"/>
            <polygon points="64.47 558.36 57.82 554.52 57.82 442.85 64.47 446.69 64.47 558.36" fill="#b55a43"/>
            <polygon points="64.47 446.69 57.82 442.85 219 349.78 225.66 353.63 64.47 446.69" fill="#f69679"/>
            <polygon points="223.72 354.74 217.07 350.9 219 349.78 225.66 353.63 223.72 354.74" fill="#c26950"/>
            <polygon points="223.72 466.42 223.72 354.74 225.66 353.63 225.66 465.3 223.72 466.42" fill="#b55a43"/>
            <polygon points="223.84 464.25 64.47 556.13 64.47 558.36 225.66 465.3 223.84 464.25" fill="#b55a43"/>
          </g>
        </g>
        <g id="Stuhl">
          <g>
            <path d="M718.11,971c0,48.67.93,88.12,5.43,88.12S729,1019.69,729,971C729,950.39,718.11,950.39,718.11,971Z" fill="#c26950"/>
            <path d="M769.91,929.36c11.48,47.21,21.7,85.26,26.06,84.14s-4-39.63-15.53-86.84C775.57,906.65,765,909.35,769.91,929.36Z" fill="#c26950"/>
            <path d="M677.16,929.36c-11.48,47.21-21.7,85.26-26.06,84.14s4-39.63,15.53-86.84C671.5,906.65,682,909.35,677.16,929.36Z" fill="#c26950"/>
          </g>
          <g>
            <g>
              <g>
                <path d="M802.12,936.74s-31.73-10.53-36.9-12.39C765.21,924.36,804.49,912.57,802.12,936.74Z" fill="url(#linear-gradient-31)"/>
                <path d="M643.93,916.64c0,7.09,3,12.18,8.3,14a14.24,14.24,0,0,0,7.91.2,25.68,25.68,0,0,0,10.05-5.28l47.09,39.29c7.11,4.1,10.35,3.22,14.12,3.88,3.53.62,52.94-45.27,52.94-40.67l17.89-5.17s-68.19-40.3-73.36-42.16c-5.34-1.93-11.9-.17-18,4.8l-43.63,35.61c-4.26,3.48-8.65,4.81-12,3.66s-5.34-4.63-5.34-9.54Z" fill="url(#linear-gradient-31)"/>
                <path d="M714.85,957.59c0,7.09,3,12.18,8.3,14a14.23,14.23,0,0,0,7.91.2,25.67,25.67,0,0,0,10.05-5.28l43.63-35.62c4.18-3.41,8.55-4.66,12-3.41s5.38,4.69,5.38,9.3l5.92-1.41c0-6.71-3.09-11.83-8.26-13.69-5.34-1.92-11.9-.17-18,4.8l-43.63,35.61c-4.26,3.48-8.65,4.81-12,3.66s-5.34-4.63-5.34-9.54Z" fill="url(#linear-gradient-31)"/>
              </g>
              <g>
                <path d="M802.12,936.74s-31.73-10.53-36.9-12.39C765.21,924.36,804.49,912.57,802.12,936.74Z" fill="url(#linear-gradient-34)"/>
                <path d="M643.93,916.64c0,7.09,3,12.18,8.3,14a14.24,14.24,0,0,0,7.91.2,25.68,25.68,0,0,0,10.05-5.28l47.09,39.29c7.11,4.1,10.35,3.22,14.12,3.88,3.53.62,52.94-45.27,52.94-40.67l17.89-5.17s-68.19-40.3-73.36-42.16c-5.34-1.93-11.9-.17-18,4.8l-43.63,35.61c-4.26,3.48-8.65,4.81-12,3.66s-5.34-4.63-5.34-9.54Z" fill="url(#linear-gradient-35)"/>
                <path d="M714.85,957.59c0,7.09,3,12.18,8.3,14a14.23,14.23,0,0,0,7.91.2,25.67,25.67,0,0,0,10.05-5.28l43.63-35.62c4.18-3.41,8.55-4.66,12-3.41s5.38,4.69,5.38,9.3l5.92-1.41c0-6.71-3.09-11.83-8.26-13.69-5.34-1.92-11.9-.17-18,4.8l-43.63,35.61c-4.26,3.48-8.65,4.81-12,3.66s-5.34-4.63-5.34-9.54Z" fill="#d1d3d4"/>
              </g>
            </g>
            <g>
              <path d="M712.51,892.1c-5.34-1.93-68.41-40.36-71-41.22l-3,5.84a7.08,7.08,0,0,1,3.8,3.13,12.29,12.29,0,0,1,1.53,6.42v50.38c0,6.11,2.24,10.73,6.23,13l71,41C709,955,725.46,896.22,712.51,892.1Z" fill="url(#linear-gradient-36)"/>
              <path d="M726.11,965.72c-3.39-1.15-5.34-4.63-5.34-9.54V905.79a17.26,17.26,0,0,0-2.22-9,11.29,11.29,0,0,0-6.08-4.95l-3,5.84a7.09,7.09,0,0,1,3.8,3.13,12.31,12.31,0,0,1,1.53,6.42v50.38c0,7.09,3,12.18,8.3,14Z" fill="#d1d3d4"/>
              <polygon points="712.48 891.83 641.55 850.88 638.59 856.72 709.51 897.66 712.48 891.83" fill="#f1f2f2"/>
            </g>
          </g>
        </g>
        <g id="Lampe">
          <g>
            <path d="M820.24,511.28A96.71,96.71,0,0,0,723.53,608c0,30,43.3,54.34,96.71,54.34S917,638,917,608A96.71,96.71,0,0,0,820.24,511.28Z" fill="url(#radial-gradient)"/>
            <path d="M817.07,528.85V326.15a2.19,2.19,0,0,1,2.19-2.19h0a2.19,2.19,0,0,1,2.19,2.19h0v202.7a2.19,2.19,0,0,1-2.19,2.19h0a2.19,2.19,0,0,1-2.19-2.19Z" fill="#998776"/>
          </g>
          <g>
            <path d="M828.21,329c0,2.78-4,5-9,5s-9-2.25-9-5c0-.51-4.12-23.28-4.12-23.28l13.07-6.12,13.07,6.12S828.21,328.39,828.21,329Z" fill="#d1d3d4"/>
            <ellipse cx="819.25" cy="305.75" rx="13.07" ry="7.34" fill="#fff"/>
          </g>
        </g>
        <g id="Bild">
          <polygon points="1096.06 707.26 967.11 632.81 967.11 372.24 1096.06 446.69 1096.06 707.26" fill="#60b7bb"/>
          <g>
            <path d="M1063.82,552.64c0,20.56-14.43,103.34-32.24,93.06S999.35,536,999.35,515.41s14.43-28.89,32.24-18.61S1063.82,532.08,1063.82,552.64Z" fill="#c26950"/>
            <g>
              <path d="M1031.58,496.8c0-37.22-16.79-56.61-32.24-74.45s-22.56-10.91-13.85,0c-3.75,9.62,4.78,26.35,17.25,30.93.13,10.38,3.94,18.68,13.78,21.74C1014.56,484.38,1031.58,496.8,1031.58,496.8Z" fill="#78cdd1"/>
              <path d="M1031.58,496.8c0-37.22,16.79-37.22,32.24-37.22s22.56,15.15,13.85,16c3.75,13.95-4.78,20.83-17.25,11-.13,10.22-3.94,14.13-13.78,5.83C1048.61,504,1031.58,496.8,1031.58,496.8Z" fill="#78cdd1"/>
            </g>
            <path d="M1031.58,626.42c-7.68-4.43-14.22-11-16.72-16.39,1.24,5.41,8.25,13,16.72,17.94s15.48,5.35,16.72,1.37C1045.81,631.83,1039.26,630.86,1031.58,626.42Z" fill="#b55a43"/>
            <path d="M1031.58,607.27c-10.38-6-19.22-14.89-22.6-22.16,1.67,7.31,11.16,17.64,22.6,24.24s20.93,7.23,22.6,1.85C1050.81,614.58,1042,613.26,1031.58,607.27Z" fill="#b55a43"/>
            <path d="M1031.58,588.25c-12.43-7.18-23-17.83-27.07-26.54,2,8.75,13.36,21.12,27.07,29s25.06,8.66,27.07,2.22C1054.6,597,1044,595.42,1031.58,588.25Z" fill="#b55a43"/>
            <path d="M1031.58,569.41c-13.56-7.83-25.11-19.45-29.53-28.95,2.19,9.55,14.57,23,29.53,31.67s27.34,9.44,29.53,2.42C1056.7,579,1045.14,577.24,1031.58,569.41Z" fill="#b55a43"/>
            <path d="M1031.58,550.57c-14.67-8.47-27.18-21.05-32-31.33,2.37,10.33,15.77,24.93,32,34.27s29.59,10.22,32,2.62C1058.76,560.9,1046.26,559,1031.58,550.57Z" fill="#b55a43"/>
            <path d="M1031.58,532.16c-13.66-7.89-25.31-19.6-29.75-29.17,2.2,9.62,14.69,23.21,29.75,31.91s27.55,9.51,29.75,2.44C1056.89,541.78,1045.25,540.05,1031.58,532.16Z" fill="#b55a43"/>
            <path d="M1031.58,514.37c-9.59-5.54-17.76-13.76-20.88-20.47,1.55,6.75,10.31,16.29,20.88,22.4s19.33,6.68,20.88,1.71C1049.34,521.12,1041.17,519.9,1031.58,514.37Z" fill="#b55a43"/>
          </g>
        </g>
      </g>
    </g>
  </g>
</svg>
